24

2 2
7
r 0 1 e
r 0 1 n
r 0 1 e
f 1 1 s
r 0 0 w
t 1 1 s
f 0 0 s
14 6

2 14
8
f 1 9 n
f 1 10 e
r 0 8 n
h 0 0 e
h 0 12 s
h 1 2 n
r 1 11 w
t 1 7 w
14 15

3 12
11
r 0 9 s
h 1 0 s
r 1 3 s
f 0 3 w
f 1 11 w
f 2 3 s
r 0 10 w
r 1 1 n
t 1 10 e
t 0 10 e
f 2 11 w
5 9

10 11
6
h 5 1 w
f 9 2 n
h 1 9 s
t 8 7 n
h 4 4 s
h 3 9 e
8 13

8 19
1
r 7 18 e
2 5

7 7
8
f 6 6 n
f 1 1 n
r 0 1 s
f 5 5 n
r 5 2 n
h 0 5 e
t 1 3 e
r 6 0 w
13 14

8 4
6
f 5 3 n
h 3 1 n
r 6 2 n
r 3 3 n
h 0 1 n
f 6 0 w
12 6

10 12
5
r 2 3 w
f 8 8 n
t 0 1 w
h 3 7 n
h 7 2 s
7 7

1 16
1
r 0 5 w
6 1

4 2
13
t 2 1 n
h 1 0 n
f 2 0 e
t 1 1 n
h 1 1 e
t 2 1 n
t 1 1 w
h 2 1 e
t 0 0 s
t 0 1 e
h 3 0 s
f 0 0 e
h 2 0 s
4 11

9 13
4
f 6 0 n
f 4 4 w
f 6 2 w
t 3 1 s
2 12

6 8
1
f 3 0 e
13 14

5 4
10
f 1 1 s
r 2 2 e
t 1 1 w
r 4 0 w
r 2 3 n
r 0 2 s
r 3 2 e
h 3 3 w
h 4 1 s
f 3 1 w
5 1

7 7
7
r 0 0 n
r 0 4 e
h 0 1 w
t 5 5 e
r 1 5 e
t 1 4 n
f 2 2 e
5 4

10 7
10
r 5 0 e
r 9 0 e
r 5 4 n
r 7 4 e
r 2 2 e
t 6 5 w
f 8 0 s
h 6 4 s
h 3 3 e
f 5 0 s
4 10

3 2
8
f 0 1 n
r 2 0 e
t 1 1 w
f 0 1 e
t 0 0 n
f 1 1 w
f 2 1 s
t 0 1 w
7 4

6 3
4
f 3 1 w
t 2 2 e
t 0 2 e
f 4 1 w
8 13

3 15
13
f 2 4 n
h 2 9 e
r 2 14 e
t 2 7 w
f 2 1 e
f 1 5 e
h 0 0 w
t 0 7 s
f 2 5 s
r 0 4 n
f 2 7 n
f 0 12 n
f 0 5 n
1 13

7 3
12
f 5 0 n
h 6 2 e
t 2 1 s
r 4 0 s
t 6 0 e
f 6 2 n
r 6 2 s
h 5 2 e
t 4 2 s
r 5 2 s
f 3 1 s
r 6 0 n
10 6

9 17
11
t 4 15 w
t 3 11 e
t 3 14 w
r 8 11 w
t 0 0 n
r 1 14 w
t 3 0 n
r 5 4 w
t 7 3 n
f 4 8 w
t 1 9 e
1 1

10 10
1
t 4 5 w
14 9

2 16
1
t 0 9 s
11 12

8 18
1
f 1 12 e
3 1

9 20
4
r 1 16 w
r 5 0 s
f 2 10 s
h 7 1 w
2 13
