27

105 146
4
r 60 59 w
r 39 126 w
r 28 53 e
t 42 141 n
22 121

135 151
7
h 110 74 n
f 109 126 n
r 23 14 s
t 130 106 n
t 76 25 w
t 123 39 s
t 45 19 n
17 126

200 25
3
r 0 13 w
f 96 20 s
h 38 20 w
40 187

127 168
3
f 57 53 w
f 71 44 w
h 109 107 w
34 82

195 4
3
f 29 2 n
h 17 2 n
f 98 3 e
11 84

5 162
1
h 3 140 e
47 88

25 100
1
r 11 37 w
27 59

105 186
1
h 12 169 n
21 34

190 158
2
h 109 59 w
f 174 132 s
16 139

34 142
5
t 31 111 s
f 28 91 e
h 22 27 s
h 8 34 e
t 11 70 e
7 150

38 135
3
h 14 39 s
h 36 123 s
f 32 115 w
3 35

24 190
1
f 20 71 e
45 127

15 104
1
h 14 74 s
6 16

81 167
6
h 20 16 n
r 59 155 e
f 4 115 w
r 41 140 w
r 57 153 e
h 50 22 w
4 61

120 79
6
f 22 63 e
t 72 78 e
t 110 69 n
f 115 40 n
f 12 56 s
f 60 25 n
18 14

39 190
5
h 5 15 s
h 0 52 n
t 18 107 w
t 24 160 w
h 30 64 e
1 92

12 177
4
h 5 158 n
t 10 44 n
h 6 35 n
f 10 43 w
11 76

164 45
4
h 50 24 s
f 105 37 s
f 115 39 w
h 27 24 s
34 40

165 128
6
t 73 100 n
f 153 20 s
h 145 58 w
r 95 8 s
r 104 123 e
t 158 3 n
11 194

153 124
1
f 52 61 s
8 165

43 90
4
r 30 89 s
t 18 58 w
t 38 19 s
h 34 53 e
44 101

178 110
4
r 71 87 e
r 158 4 s
h 155 76 w
r 99 96 w
32 80

86 23
5
f 76 7 s
h 33 11 e
r 63 10 s
r 36 8 s
f 38 14 s
30 125

95 66
4
t 2 31 n
r 77 23 n
f 67 25 s
t 56 12 e
48 48

52 27
5
r 29 19 n
h 18 2 n
f 34 22 e
t 9 16 w
r 16 6 e
13 39

173 136
1
h 37 45 w
40 73

82 153
7
t 63 66 e
f 81 22 n
t 59 142 s
h 51 87 e
t 58 104 e
f 23 126 n
t 61 140 s
11 98
