*** Darwin 20x14 ***
Turn = 0.
  01234567890123
0 ...........r..
1 r.............
2 ....ht........
3 ..........t...
4 ..............
5 ..............
6 ..............
7 .............t
8 ...........r..
9 ..............
0 ..............
1 .......f......
2 ............f.
3 ....r.........
4 ..............
5 ..f...........
6 ....h..r......
7 ............t.
8 .........r....
9 .h........t..h

Turn = 4.
  01234567890123
0 ..............
1 .............r
2 .....t........
3 ..........t...
4 ...........r..
5 r.............
6 ....h.........
7 .............t
8 ..............
9 ..............
0 ..............
1 .......f......
2 ............f.
3 ..............
4 ..............
5 ..f...........
6 h.............
7 ....rr......t.
8 ..........t...
9 .....h....t..h

*** Darwin 20x17 ***
Turn = 0.
  01234567890123456
0 .....f...........
1 .................
2 .................
3 .................
4 .................
5 .................
6 ........h........
7 .................
8 .................
9 .................
0 .................
1 .................
2 ..f..............
3 .................
4 .................
5 .................
6 .................
7 .................
8 .................
9 .................

Turn = 1.
  01234567890123456
0 .....f...........
1 .................
2 .................
3 .................
4 .................
5 .................
6 .......h.........
7 .................
8 .................
9 .................
0 .................
1 .................
2 ..f..............
3 .................
4 .................
5 .................
6 .................
7 .................
8 .................
9 .................

*** Darwin 8x5 ***
Turn = 0.
  01234
0 .f..h
1 .....
2 ..h.r
3 .....
4 .....
5 .....
6 .r...
7 .....

Turn = 15.
  01234
0 ...r.
1 ....r
2 ....r
3 .....
4 .....
5 .....
6 .....
7 r...h

*** Darwin 7x16 ***
Turn = 0.
  0123456789012345
0 ...h.........r..
1 .t..............
2 .r..............
3 .....f..........
4 ................
5 ..t..........f..
6 .t...t..........

Turn = 1.
  0123456789012345
0 ...h..........r.
1 .t..............
2 .t..............
3 .....f..........
4 ................
5 ..t..........f..
6 .t...t..........

Turn = 2.
  0123456789012345
0 ...h...........r
1 .t..............
2 .t..............
3 .....f..........
4 ................
5 ..t..........f..
6 .t...t..........

Turn = 3.
  0123456789012345
0 ...h...........r
1 .t..............
2 .t..............
3 .....f..........
4 ................
5 ..t..........f..
6 .t...t..........

Turn = 4.
  0123456789012345
0 ...h............
1 .t.............r
2 .t..............
3 .....f..........
4 ................
5 ..t..........f..
6 .t...t..........

Turn = 5.
  0123456789012345
0 ...h............
1 .t..............
2 .t.............r
3 .....f..........
4 ................
5 ..t..........f..
6 .t...t..........

Turn = 6.
  0123456789012345
0 ...h............
1 .t..............
2 .t..............
3 .....f.........r
4 ................
5 ..t..........f..
6 .t...t..........

Turn = 7.
  0123456789012345
0 ...h............
1 .t..............
2 .t..............
3 .....f..........
4 ...............r
5 ..t..........f..
6 .t...t..........

Turn = 8.
  0123456789012345
0 ...h............
1 .t..............
2 .t..............
3 .....f..........
4 ................
5 ..t..........f.r
6 .t...t..........

Turn = 9.
  0123456789012345
0 ...h............
1 .t..............
2 .t..............
3 .....f..........
4 ................
5 ..t..........f..
6 .t...t.........r

Turn = 10.
  0123456789012345
0 ...h............
1 .t..............
2 .t..............
3 .....f..........
4 ................
5 ..t..........f..
6 .t...t.........r

Turn = 11.
  0123456789012345
0 ...h............
1 .t..............
2 .t..............
3 .....f..........
4 ................
5 ..t..........f..
6 .t...t.........r

*** Darwin 7x8 ***
Turn = 0.
  01234567
0 ........
1 f...r...
2 ........
3 ........
4 ...ht...
5 ........
6 ........

Turn = 1.
  01234567
0 ........
1 f.......
2 ....r...
3 ...h....
4 ....t...
5 ........
6 ........

Turn = 2.
  01234567
0 ........
1 f.......
2 ...h....
3 ....r...
4 ....t...
5 ........
6 ........

Turn = 3.
  01234567
0 ........
1 f..h....
2 ........
3 ....r...
4 ....r...
5 ........
6 ........

*** Darwin 10x6 ***
Turn = 0.
  012345
0 .....r
1 ......
2 ...f..
3 rr..f.
4 .hf...
5 ......
6 ......
7 ......
8 ......
9 ......

Turn = 2.
  012345
0 ...r..
1 rr....
2 ...f..
3 ....f.
4 .hf...
5 ......
6 ......
7 ......
8 ......
9 ......

Turn = 4.
  012345
0 rrr...
1 ......
2 ...f..
3 ....f.
4 .hf...
5 ......
6 ......
7 ......
8 ......
9 ......

*** Darwin 6x7 ***
Turn = 0.
  0123456
0 r...h..
1 .......
2 ..rt..h
3 fh....f
4 rr....f
5 .r....f

Turn = 5.
  0123456
0 .r.rr..
1 rr.....
2 ...th..
3 .r....f
4 .r....f
5 .r....f

*** Darwin 4x17 ***
Turn = 0.
  01234567890123456
0 .................
1 ....h.........f..
2 ..............f..
3 .................

Turn = 3.
  01234567890123456
0 ....h............
1 ..............f..
2 ..............f..
3 .................

*** Darwin 6x11 ***
Turn = 0.
  01234567890
0 ...hf......
1 ......h.r..
2 ......h....
3 ..........t
4 ....r......
5 .ff....f...

Turn = 4.
  01234567890
0 h...f.rr...
1 ......r....
2 ...........
3 ..........t
4 ........r..
5 .ff....f...

*** Darwin 4x16 ***
Turn = 0.
  0123456789012345
0 ..........h.....
1 ..fh.........f.t
2 ....t...t.......
3 h.h..f..rfh....h

Turn = 6.
  0123456789012345
0 h...............
1 ..f.....t....f.t
2 ....t...t.h.....
3 h.r.t....fhh....

Turn = 12.
  0123456789012345
0 r...............
1 r.f.....t....f.t
2 ....t...t.h.....
3 r...t....fhh....

Turn = 18.
  0123456789012345
0 ..r..r..........
1 r.......t....f.t
2 ....t...t.h.....
3 .r..t....fhh....

*** Darwin 19x19 ***
Turn = 0.
  0123456789012345678
0 ...................
1 ................t..
2 ...................
3 ...................
4 ...................
5 ...................
6 ...............h...
7 f...........r......
8 ...................
9 ...................
0 ......h............
1 ...................
2 ........h..........
3 ...........h.......
4 ...................
5 ...................
6 f..................
7 .........t....t....
8 f.......t........r.

Turn = 5.
  0123456789012345678
0 ...................
1 ................t..
2 ............r......
3 ...................
4 ...................
5 ...................
6 ..................h
7 f.......h..........
8 ...................
9 ...................
0 ...................
1 ...................
2 ...................
3 ......h..........r.
4 ...................
5 ......h............
6 f..................
7 .........t....t....
8 f.......t..........

*** Darwin 8x10 ***
Turn = 0.
  0123456789
0 ..t......t
1 ........f.
2 ..........
3 ..........
4 .......f..
5 ..........
6 ..........
7 ..........

Turn = 1.
  0123456789
0 ..t......t
1 ........f.
2 ..........
3 ..........
4 .......f..
5 ..........
6 ..........
7 ..........

Turn = 2.
  0123456789
0 ..t......t
1 ........f.
2 ..........
3 ..........
4 .......f..
5 ..........
6 ..........
7 ..........

*** Darwin 2x12 ***
Turn = 0.
  012345678901
0 f.h..h......
1 .r..f.r.....

Turn = 3.
  012345678901
0 rr..........
1 r...frr.....

Turn = 6.
  012345678901
0 r....r.r....
1 rr.r........

Turn = 9.
  012345678901
0 .r.r......r.
1 rrr.........

*** Darwin 5x14 ***
Turn = 0.
  01234567890123
0 ..............
1 f.............
2 ..............
3 ..............
4 ..............

Turn = 2.
  01234567890123
0 ..............
1 f.............
2 ..............
3 ..............
4 ..............

*** Darwin 8x16 ***
Turn = 0.
  0123456789012345
0 ................
1 ................
2 ................
3 h...............
4 ......h...r.....
5 h...............
6 ................
7 ................

Turn = 6.
  0123456789012345
0 h..........r....
1 ................
2 ................
3 ......h.........
4 ............h...
5 ................
6 ................
7 ................

Turn = 12.
  0123456789012345
0 h..............r
1 ................
2 ................
3 ............h...
4 ...............h
5 ................
6 ................
7 ................

*** Darwin 17x18 ***
Turn = 0.
  012345678901234567
0 ..................
1 ..................
2 t.................
3 ........h.........
4 ........f......h..
5 ......h.....h.....
6 ..................
7 ...........h...t..
8 ............t.....
9 t.................
0 ................f.
1 ..t..f.....h......
2 ..................
3 ..................
4 .....h............
5 ..................
6 ..................

Turn = 7.
  012345678901234567
0 ............h..h..
1 ..................
2 t.................
3 .h................
4 ........f.........
5 h.................
6 ..................
7 ....h..........t..
8 ............t.....
9 t.................
0 ................f.
1 ..t..f............
2 .....h............
3 ..................
4 ..................
5 ..................
6 ...........h......

*** Darwin 15x3 ***
Turn = 0.
  012
0 .r.
1 ...
2 ...
3 ...
4 ...
5 ..h
6 ...
7 h..
8 ...
9 ...
0 f..
1 ...
2 ...
3 ..f
4 ..f

Turn = 2.
  012
0 ...
1 ...
2 .r.
3 ..h
4 ...
5 ...
6 ...
7 ...
8 ...
9 h..
0 f..
1 ...
2 ...
3 ..f
4 ..f

Turn = 4.
  012
0 ...
1 ..h
2 ...
3 ...
4 .r.
5 ...
6 ...
7 ...
8 ...
9 h..
0 f..
1 ...
2 ...
3 ..f
4 ..f

Turn = 6.
  012
0 ..h
1 ...
2 ...
3 ...
4 ...
5 ...
6 .r.
7 ...
8 ...
9 h..
0 f..
1 ...
2 ...
3 ..f
4 ..f

Turn = 8.
  012
0 ..h
1 ...
2 ...
3 ...
4 ...
5 ...
6 ...
7 ...
8 .r.
9 h..
0 f..
1 ...
2 ...
3 ..f
4 ..f

Turn = 10.
  012
0 ..h
1 ...
2 ...
3 ...
4 ...
5 ...
6 ...
7 ...
8 ...
9 h..
0 fr.
1 ...
2 ...
3 ..f
4 ..f

*** Darwin 3x10 ***
Turn = 0.
  0123456789
0 ......t.r.
1 hhr..f....
2 hf.tt.ft.t

Turn = 13.
  0123456789
0 h.........
1 .h..t.t..t
2 hf.ttttt.t

*** Darwin 14x17 ***
Turn = 0.
  01234567890123456
0 .f.h.f...........
1 ................r
2 .................
3 .................
4 .................
5 .................
6 ...........r.....
7 .................
8 .t..........f....
9 .f.f....t........
0 ...h...t.........
1 ........f.......f
2 .................
3 r............t...

Turn = 2.
  01234567890123456
0 .f...f..........r
1 .................
2 ...h.............
3 .................
4 .................
5 .................
6 .........r.......
7 .................
8 .t..........f....
9 .t.f....t........
0 .h.....t.........
1 r.......f.......f
2 .................
3 .............t...

*** Darwin 13x13 ***
Turn = 0.
  0123456789012
0 ............f
1 .............
2 .............
3 .............
4 .............
5 .............
6 .......r.....
7 .........r...
8 r...t....h...
9 .............
0 .............
1 .............
2 ..f.....r..r.

Turn = 5.
  0123456789012
0 ............f
1 .............
2 .........r...
3 .........h...
4 r............
5 .............
6 .............
7 .............
8 ....t........
9 .........rr..
0 .............
1 .......r.....
2 ..f..........

Turn = 10.
  0123456789012
0 r........h.rf
1 .............
2 .............
3 .............
4 .........rr..
5 .............
6 .............
7 .............
8 ....t........
9 .............
0 .............
1 .............
2 ..f.r........
