*** Darwin 10x8 ***
Turn = 0.
  01234567
0 ........
1 ..f.f...
2 ........
3 ........
4 ........
5 .....f..
6 h....t..
7 ........
8 ......h.
9 ........

Turn = 4.
  01234567
0 ........
1 ..f.f...
2 ........
3 ........
4 ........
5 .....t..
6 h....t..
7 ........
8 .......h
9 ........

Turn = 8.
  01234567
0 ........
1 ..f.f...
2 ........
3 ........
4 ........
5 .....t..
6 h....t..
7 ........
8 .......h
9 ........

Turn = 12.
  01234567
0 ........
1 ..f.f...
2 ........
3 ........
4 ........
5 .....t..
6 h....t..
7 ........
8 .......h
9 ........

Turn = 16.
  01234567
0 ........
1 ..f.f...
2 ........
3 ........
4 ........
5 .....t..
6 h....t..
7 ........
8 .......h
9 ........

Turn = 20.
  01234567
0 ........
1 ..f.f...
2 ........
3 ........
4 ........
5 .....t..
6 h....t..
7 ........
8 .......h
9 ........

Turn = 24.
  01234567
0 ........
1 ..f.f...
2 ........
3 ........
4 ........
5 .....t..
6 h....t..
7 ........
8 .......h
9 ........

Turn = 28.
  01234567
0 ........
1 ..f.f...
2 ........
3 ........
4 ........
5 .....t..
6 h....t..
7 ........
8 .......h
9 ........

Turn = 32.
  01234567
0 ........
1 ..f.f...
2 ........
3 ........
4 ........
5 .....t..
6 h....t..
7 ........
8 .......h
9 ........

Turn = 36.
  01234567
0 ........
1 ..f.f...
2 ........
3 ........
4 ........
5 .....t..
6 h....t..
7 ........
8 .......h
9 ........

Turn = 40.
  01234567
0 ........
1 ..f.f...
2 ........
3 ........
4 ........
5 .....t..
6 h....t..
7 ........
8 .......h
9 ........

Turn = 44.
  01234567
0 ........
1 ..f.f...
2 ........
3 ........
4 ........
5 .....t..
6 h....t..
7 ........
8 .......h
9 ........

*** Darwin 8x10 ***
Turn = 0.
  0123456789
0 r.........
1 ..........
2 ..t.......
3 ..........
4 ....h.....
5 ....t..ff.
6 ..r..h..h.
7 t..t...f..

Turn = 3.
  0123456789
0 ..r.......
1 ..........
2 ..t.......
3 ..........
4 ....tt....
5 ....t..ff.
6 t....h....
7 t..t...f..

Turn = 6.
  0123456789
0 .....r....
1 ..........
2 ..t.......
3 ..........
4 ....tt....
5 ....t..ff.
6 t.h.......
7 t..t...f..

Turn = 9.
  0123456789
0 ........r.
1 ..........
2 ..t.......
3 ..........
4 ....tt....
5 ....t..ff.
6 tt........
7 t..t...f..

Turn = 12.
  0123456789
0 ..........
1 .........r
2 ..t.......
3 ..........
4 ....tt....
5 ....t..ff.
6 tt........
7 t..t...f..

Turn = 15.
  0123456789
0 ..........
1 ..........
2 ..t.......
3 ..........
4 ....tt...r
5 ....t..ff.
6 tt........
7 t..t...f..

Turn = 18.
  0123456789
0 ..........
1 ..........
2 ..t.......
3 ..........
4 ....tt....
5 ....t..ff.
6 tt........
7 t..t...f.r

Turn = 21.
  0123456789
0 ..........
1 ..........
2 ..t.......
3 ..........
4 ....tt....
5 ....t..ff.
6 tt........
7 t..t...rr.

Turn = 24.
  0123456789
0 ..........
1 ..........
2 ..t.......
3 ..........
4 ....tt.r..
5 ....t..rf.
6 tt........
7 t..t.r....

Turn = 27.
  0123456789
0 ..........
1 .......r..
2 ..t....r..
3 ..........
4 ....tt....
5 ....t...f.
6 tt........
7 t.rr......

Turn = 30.
  0123456789
0 ........r.
1 ........r.
2 ..t.......
3 ..........
4 ....tt....
5 ....t...f.
6 tt........
7 ttr.......

Turn = 33.
  0123456789
0 .........r
1 .........r
2 ..t.......
3 ..........
4 ....tt....
5 ....t...f.
6 tt........
7 rrr.......

Turn = 36.
  0123456789
0 ......r..r
1 ..........
2 ..t.......
3 ..........
4 ....tt....
5 ....t...f.
6 tt........
7 r.r..r....

Turn = 39.
  0123456789
0 ...r.....r
1 ..........
2 ..t.......
3 ..........
4 ....tt....
5 ....t...f.
6 tt........
7 t....r..r.

*** Darwin 9x9 ***
Turn = 0.
  012345678
0 f........
1 .........
2 ..f......
3 .........
4 .hrtfr...
5 .........
6 ....r.h..
7 .f..t....
8 .........

Turn = 5.
  012345678
0 fh.......
1 .........
2 ..f......
3 .........
4 ...tt....
5 .........
6 r.r......
7 r........
8 ...r.rh..

Turn = 10.
  012345678
0 fh.......
1 ..r......
2 r.r......
3 .........
4 ...tt....
5 .........
6 .r.......
7 .........
8 rr....h..

Turn = 15.
  012345678
0 rh...r...
1 .r...r...
2 r........
3 .r.......
4 r..tt....
5 .........
6 .........
7 .........
8 ......h..

Turn = 20.
  012345678
0 ..r..r..r
1 r........
2 ...r....r
3 r.r......
4 ...rt....
5 .........
6 .........
7 .........
8 ......h..

Turn = 25.
  012345678
0 ..rrr..rr
1 .........
2 .......r.
3 .........
4 .........
5 .........
6 r........
7 ...r....r
8 r.....h..

Turn = 30.
  012345678
0 r...r....
1 r........
2 .........
3 .........
4 .........
5 ..r.....r
6 ........r
7 rr.....r.
8 r.....h..

Turn = 35.
  012345678
0 r........
1 .r.......
2 .........
3 .........
4 r........
5 r.r.r....
6 r...r....
7 ......r.r
8 ......h..

*** Darwin 21x32 ***
Turn = 0.
  01234567890123456789012345678901
0 ................................
1 .h.........................f....
2 ......................f.........
3 ................................
4 .............................r..
5 .............h..................
6 ................................
7 ................................
8 ................................
9 ................................
0 ................................
1 ................................
2 ................................
3 ................................
4 ................r...............
5 ............................t...
6 ........................h.....t.
7 ................................
8 ................................
9 ..............................f.
0 ................................

Turn = 1.
  01234567890123456789012345678901
0 ................................
1 ...........................f....
2 .h....................f.........
3 .............................r..
4 .............h..................
5 ................................
6 ................................
7 ................................
8 ................................
9 ................................
0 ................................
1 ................................
2 ................................
3 ................r...............
4 ................................
5 ........................h...t...
6 ..............................t.
7 ................................
8 ................................
9 ..............................f.
0 ................................

Turn = 2.
  01234567890123456789012345678901
0 ................................
1 ...........................f....
2 ......................f......r..
3 .h...........h..................
4 ................................
5 ................................
6 ................................
7 ................................
8 ................................
9 ................................
0 ................................
1 ................................
2 ................r...............
3 ................................
4 ........................h.......
5 ............................t...
6 ..............................t.
7 ................................
8 ................................
9 ..............................f.
0 ................................

Turn = 3.
  01234567890123456789012345678901
0 ................................
1 ...........................f.r..
2 .............h........f.........
3 ................................
4 .h..............................
5 ................................
6 ................................
7 ................................
8 ................................
9 ................................
0 ................................
1 ................r...............
2 ................................
3 ........................h.......
4 ................................
5 ............................t...
6 ..............................t.
7 ................................
8 ................................
9 ..............................f.
0 ................................

Turn = 4.
  01234567890123456789012345678901
0 .............................r..
1 .............h.............f....
2 ......................f.........
3 ................................
4 ................................
5 .h..............................
6 ................................
7 ................................
8 ................................
9 ................................
0 ................r...............
1 ................................
2 ........................h.......
3 ................................
4 ................................
5 ............................t...
6 ..............................t.
7 ................................
8 ................................
9 ..............................f.
0 ................................

Turn = 5.
  01234567890123456789012345678901
0 .............h...............r..
1 ...........................f....
2 ......................f.........
3 ................................
4 ................................
5 ................................
6 .h..............................
7 ................................
8 ................................
9 ................r...............
0 ................................
1 ........................h.......
2 ................................
3 ................................
4 ................................
5 ............................t...
6 ..............................t.
7 ................................
8 ................................
9 ..............................f.
0 ................................

Turn = 6.
  01234567890123456789012345678901
0 .............h................r.
1 ...........................f....
2 ......................f.........
3 ................................
4 ................................
5 ................................
6 ................................
7 .h..............................
8 ................r...............
9 ................................
0 ........................h.......
1 ................................
2 ................................
3 ................................
4 ................................
5 ............................t...
6 ..............................t.
7 ................................
8 ................................
9 ..............................f.
0 ................................

Turn = 7.
  01234567890123456789012345678901
0 .............h.................r
1 ...........................f....
2 ......................f.........
3 ................................
4 ................................
5 ................................
6 ................................
7 ................r...............
8 .h..............................
9 ........................h.......
0 ................................
1 ................................
2 ................................
3 ................................
4 ................................
5 ............................t...
6 ..............................t.
7 ................................
8 ................................
9 ..............................f.
0 ................................

Turn = 8.
  01234567890123456789012345678901
0 .............h.................r
1 ...........................f....
2 ......................f.........
3 ................................
4 ................................
5 ................................
6 ................r...............
7 ................................
8 ........................h.......
9 .h..............................
0 ................................
1 ................................
2 ................................
3 ................................
4 ................................
5 ............................t...
6 ..............................t.
7 ................................
8 ................................
9 ..............................f.
0 ................................

Turn = 9.
  01234567890123456789012345678901
0 .............h.................r
1 ...........................f....
2 ......................f.........
3 ................................
4 ................................
5 ................r...............
6 ................................
7 ........................h.......
8 ................................
9 ................................
0 .h..............................
1 ................................
2 ................................
3 ................................
4 ................................
5 ............................t...
6 ..............................t.
7 ................................
8 ................................
9 ..............................f.
0 ................................

Turn = 10.
  01234567890123456789012345678901
0 .............h.................r
1 ...........................f....
2 ......................f.........
3 ................................
4 ................r...............
5 ................................
6 ........................h.......
7 ................................
8 ................................
9 ................................
0 ................................
1 .h..............................
2 ................................
3 ................................
4 ................................
5 ............................t...
6 ..............................t.
7 ................................
8 ................................
9 ..............................f.
0 ................................

Turn = 11.
  01234567890123456789012345678901
0 .............h..................
1 ...........................f...r
2 ......................f.........
3 ................r...............
4 ................................
5 ........................h.......
6 ................................
7 ................................
8 ................................
9 ................................
0 ................................
1 ................................
2 .h..............................
3 ................................
4 ................................
5 ............................t...
6 ..............................t.
7 ................................
8 ................................
9 ..............................f.
0 ................................

Turn = 12.
  01234567890123456789012345678901
0 .............h..................
1 ...........................f....
2 ................r.....f........r
3 ................................
4 ........................h.......
5 ................................
6 ................................
7 ................................
8 ................................
9 ................................
0 ................................
1 ................................
2 ................................
3 .h..............................
4 ................................
5 ............................t...
6 ..............................t.
7 ................................
8 ................................
9 ..............................f.
0 ................................

Turn = 13.
  01234567890123456789012345678901
0 .............h..................
1 ................r..........f....
2 ......................f.........
3 ........................h......r
4 ................................
5 ................................
6 ................................
7 ................................
8 ................................
9 ................................
0 ................................
1 ................................
2 ................................
3 ................................
4 .h..............................
5 ............................t...
6 ..............................t.
7 ................................
8 ................................
9 ..............................f.
0 ................................

*** Darwin 10x10 ***
Turn = 0.
  0123456789
0 ....h.....
1 ..........
2 ....f..r..
3 ....r.....
4 ..h..r....
5 r.tf......
6 ......t.r.
7 ..........
8 ..........
9 .t........

Turn = 1.
  0123456789
0 ....h.....
1 ..........
2 ....f.r...
3 ..hr.r....
4 r.........
5 ..tt......
6 ......t..r
7 ..........
8 ..........
9 .t........

Turn = 2.
  0123456789
0 ....h.....
1 ..........
2 ..h.fr....
3 r.r..r....
4 ..........
5 ..tt......
6 ......t..r
7 ..........
8 ..........
9 .t........

Turn = 3.
  0123456789
0 ....h.....
1 ..h.......
2 r...rr....
3 .r....r...
4 ..........
5 ..tt.....r
6 ......t...
7 ..........
8 ..........
9 .t........

Turn = 4.
  0123456789
0 ..h.h.....
1 r.........
2 ....r.....
3 r...r..r..
4 .........r
5 ..tt......
6 ......t...
7 ..........
8 ..........
9 .t........

*** Darwin 10x9 ***
Turn = 0.
  012345678
0 .........
1 h..f...h.
2 h........
3 ...r.t...
4 .....h...
5 .........
6 ..f.h....
7 .h.......
8 .....t...
9 ......t..

Turn = 2.
  012345678
0 .........
1 ..hf....h
2 ..h......
3 .....t...
4 ...h.....
5 ...r.....
6 ..f......
7 .........
8 ....ht...
9 .h....t..

Turn = 4.
  012345678
0 .........
1 ..hf....h
2 ....h....
3 .....t...
4 .h.......
5 .........
6 ..f......
7 ...r.....
8 .....t...
9 .h..h.t..

*** Darwin 8x10 ***
Turn = 0.
  0123456789
0 ..........
1 h.........
2 h.....rh..
3 .tr...f..f
4 ...rr.....
5 ......r...
6 ..........
7 ..........

Turn = 2.
  0123456789
0 ..........
1 h.........
2 h...r.r...
3 .rr...r..f
4 .......r..
5 ..........
6 ...r......
7 ......r...

Turn = 4.
  0123456789
0 ....r.....
1 h.r.......
2 h.......r.
3 ........rf
4 ..........
5 .r........
6 .......r..
7 ...r.r....

Turn = 6.
  0123456789
0 ..rr......
1 h.........
2 h........r
3 ........rr
4 ..........
5 ..........
6 ..........
7 .rrr...r..

Turn = 8.
  0123456789
0 ..........
1 h.rr....r.
2 h........r
3 .........r
4 ..........
5 ..........
6 ...r......
7 .rr..r....

Turn = 10.
  0123456789
0 ........rr
1 h.........
2 h........r
3 ..rr......
4 ...r......
5 ..r.......
6 ..........
7 ..rr......

Turn = 12.
  0123456789
0 .........r
1 h.......rr
2 h.........
3 ..r.......
4 ..rr......
5 .r........
6 ..rr......
7 ..........

Turn = 14.
  0123456789
0 .........r
1 h.........
2 h..r.....r
3 r.......r.
4 ..rr......
5 r.r.......
6 ..........
7 ..........

Turn = 16.
  0123456789
0 ...r......
1 h.........
2 h..r.....r
3 ..........
4 rr.......r
5 ....r...r.
6 ..........
7 r.........

Turn = 18.
  0123456789
0 ...rr.....
1 h.........
2 h.........
3 ..........
4 .........r
5 ......r...
6 rr.......r
7 .r......r.

Turn = 20.
  0123456789
0 ....r.r...
1 h.........
2 h.........
3 ..........
4 ..........
5 ........r.
6 ..r......r
7 r..r...r.r

Turn = 22.
  0123456789
0 ......r.r.
1 h.........
2 h.........
3 ..........
4 ..........
5 .........r
6 ....r...rr
7 ..r..rr...

Turn = 24.
  0123456789
0 ........rr
1 h.........
2 h.........
3 .........r
4 .........r
5 ..........
6 ......rr..
7 ....rrr...

Turn = 26.
  0123456789
0 ..........
1 h.......rr
2 h........r
3 .........r
4 ..........
5 ......r...
6 .....r....
7 ....rr.r..

Turn = 28.
  0123456789
0 ..........
1 h........r
2 h.......rr
3 ......rr..
4 .....r....
5 ..........
6 ..........
7 ..rr.....r

Turn = 30.
  0123456789
0 ..........
1 h.....r...
2 h....rrr.r
3 .....r....
4 ..........
5 ..........
6 .........r
7 rr........

Turn = 32.
  0123456789
0 .....rr...
1 h.........
2 h...rr....
3 ...r......
4 .........r
5 .........r
6 ..........
7 rr........

Turn = 34.
  0123456789
0 ....r.r...
1 h.........
2 h.rr......
3 .r........
4 .........r
5 .......r..
6 ..........
7 rr........

Turn = 36.
  0123456789
0 ..r.r.....
1 h.........
2 rrr.......
3 r.........
4 ..........
5 .....r....
6 r........r
7 ...r......

*** Darwin 8x9 ***
Turn = 0.
  012345678
0 .........
1 .........
2 .........
3 .........
4 h.......r
5 .........
6 .........
7 .........

Turn = 1.
  012345678
0 .........
1 .........
2 .........
3 h........
4 .......r.
5 .........
6 .........
7 .........

Turn = 2.
  012345678
0 .........
1 .........
2 h........
3 .........
4 ......r..
5 .........
6 .........
7 .........

Turn = 3.
  012345678
0 .........
1 h........
2 .........
3 .........
4 .....r...
5 .........
6 .........
7 .........

Turn = 4.
  012345678
0 h........
1 .........
2 .........
3 .........
4 ....r....
5 .........
6 .........
7 .........

Turn = 5.
  012345678
0 h........
1 .........
2 .........
3 .........
4 ...r.....
5 .........
6 .........
7 .........

Turn = 6.
  012345678
0 h........
1 .........
2 .........
3 .........
4 ..r......
5 .........
6 .........
7 .........

Turn = 7.
  012345678
0 h........
1 .........
2 .........
3 .........
4 .r.......
5 .........
6 .........
7 .........

Turn = 8.
  012345678
0 h........
1 .........
2 .........
3 .........
4 r........
5 .........
6 .........
7 .........

Turn = 9.
  012345678
0 h........
1 .........
2 .........
3 .........
4 r........
5 .........
6 .........
7 .........

Turn = 10.
  012345678
0 h........
1 .........
2 .........
3 r........
4 .........
5 .........
6 .........
7 .........

Turn = 11.
  012345678
0 h........
1 .........
2 r........
3 .........
4 .........
5 .........
6 .........
7 .........

Turn = 12.
  012345678
0 h........
1 r........
2 .........
3 .........
4 .........
5 .........
6 .........
7 .........

Turn = 13.
  012345678
0 r........
1 r........
2 .........
3 .........
4 .........
5 .........
6 .........
7 .........

Turn = 14.
  012345678
0 r........
1 r........
2 .........
3 .........
4 .........
5 .........
6 .........
7 .........

Turn = 15.
  012345678
0 r........
1 .r.......
2 .........
3 .........
4 .........
5 .........
6 .........
7 .........

Turn = 16.
  012345678
0 r........
1 ..r......
2 .........
3 .........
4 .........
5 .........
6 .........
7 .........

Turn = 17.
  012345678
0 .r.......
1 ...r.....
2 .........
3 .........
4 .........
5 .........
6 .........
7 .........

Turn = 18.
  012345678
0 ..r......
1 ....r....
2 .........
3 .........
4 .........
5 .........
6 .........
7 .........

Turn = 19.
  012345678
0 ...r.....
1 .....r...
2 .........
3 .........
4 .........
5 .........
6 .........
7 .........

*** Darwin 32x32 ***
Turn = 0.
  01234567890123456789012345678901
0 ................................
1 ................................
2 ................................
3 ................................
4 ............t...................
5 ................r...............
6 ................................
7 .................h..............
8 ................................
9 ................................
0 .........t......................
1 ................................
2 ................................
3 ................................
4 ................................
5 ................................
6 ..........................f.....
7 ................................
8 ..............t.................
9 ................................
0 ................................
1 ........t.............f.........
2 ................................
3 .........................t..t...
4 ................................
5 ................................
6 ................................
7 ................................
8 ...........h................h...
9 ......r.........................
0 .....................h..........
1 ................................

Turn = 2.
  01234567890123456789012345678901
0 ................................
1 ................................
2 ................................
3 ................r...............
4 ............t...................
5 ................................
6 ................................
7 ...............h................
8 ................................
9 ................................
0 .........t......................
1 ................................
2 ................................
3 ................................
4 ................................
5 ................................
6 ..........................f.....
7 ................................
8 ..............t.................
9 ................................
0 ................................
1 ........t.............f.........
2 ................................
3 .........................t..t...
4 ................................
5 ................................
6 ................................
7 ......r.........................
8 ..............................h.
9 ................................
0 ...........h...........h........
1 ................................

Turn = 4.
  01234567890123456789012345678901
0 ................................
1 ................r...............
2 ................................
3 ................................
4 ............t...................
5 ................................
6 ................................
7 .............h..................
8 ................................
9 ................................
0 .........t......................
1 ................................
2 ................................
3 ................................
4 ................................
5 ................................
6 ..........................f.....
7 ................................
8 ..............t.................
9 ................................
0 ................................
1 ........t.............f.........
2 ................................
3 .........................t..t...
4 ................................
5 ......r.........................
6 ................................
7 ................................
8 ...............................h
9 ................................
0 .........................h......
1 ...........h....................

*** Darwin 10x10 ***
Turn = 0.
  0123456789
0 ..........
1 ..........
2 ..ft......
3 .....fh.h.
4 ..f.......
5 .....h....
6 .r..r.....
7 r..rr.....
8 .rrf.....h
9 .........f

Turn = 2.
  0123456789
0 ..........
1 ..........
2 ..ft......
3 .....f..hh
4 ..f.......
5 r..h......
6 ..r.......
7 ...r......
8 .r.fr..h..
9 .rr......f

Turn = 4.
  0123456789
0 ..........
1 ..........
2 ..tt......
3 r....f..hh
4 ..f.......
5 .h........
6 r.........
7 ..........
8 rr.r.h....
9 rr..r....f

Turn = 6.
  0123456789
0 ..........
1 r.........
2 ..tt......
3 .....f..hh
4 ..f.......
5 r.........
6 r.........
7 .r........
8 r..hr.....
9 rr.r.....f

Turn = 8.
  0123456789
0 r.........
1 ..........
2 ..tt......
3 .....f..hh
4 ..f.......
5 rr........
6 r...r.....
7 r.........
8 .rr.......
9 ..r..r...f

Turn = 10.
  0123456789
0 ..r.......
1 ..........
2 ..tt......
3 .r...f..hh
4 ..f.r.....
5 r.........
6 .r........
7 .r........
8 .r........
9 .r..r..r.f

Turn = 12.
  0123456789
0 ....r.....
1 .r........
2 ..ttr.....
3 .....f..hh
4 ..f.......
5 ..r.......
6 ...r......
7 ...r......
8 r.........
9 ..r...r.rr

Turn = 14.
  0123456789
0 .r..r.r...
1 ..........
2 ..tt......
3 .....f..hh
4 ..f.......
5 ....r.....
6 .....r....
7 .....r....
8 ..........
9 r...r..rrr

Turn = 16.
  0123456789
0 r....r..r.
1 ..........
2 ..tt......
3 .....f..hh
4 ..f.......
5 ......r...
6 .......r..
7 .......r.r
8 r......r..
9 ......rr..

*** Darwin 8x8 ***
Turn = 0.
  01234567
0 ....t..t
1 .....h..
2 ht......
3 .th...t.
4 ..r...hh
5 hh......
6 ..f.h..f
7 ........

Turn = 3.
  01234567
0 ....t..t
1 ........
2 .t......
3 tth.h.t.
4 .....hhh
5 hh......
6 ..r....f
7 ..r.....

Turn = 6.
  01234567
0 ....t..t
1 ....h...
2 .t......
3 ttt...t.
4 ......th
5 ..h.h...
6 ....r..f
7 r....h..

Turn = 9.
  01234567
0 ....t..t
1 ....t...
2 .t......
3 ttt...t.
4 r.....tt
5 .....h.h
6 ......rr
7 .....h..

Turn = 12.
  01234567
0 ....t..t
1 ....t...
2 .t......
3 ttt...t.
4 t.....tt
5 ......tr
6 .......r
7 .....hr.

Turn = 15.
  01234567
0 ....t..t
1 ....t...
2 .t......
3 ttt...t.
4 t.....tt
5 ......tt
6 .......t
7 .....rr.

Turn = 18.
  01234567
0 ....t..t
1 ....t...
2 .t......
3 ttt...t.
4 t.....tt
5 ......rt
6 .....rrt
7 ........

Turn = 21.
  01234567
0 ....t..t
1 ....t...
2 .t......
3 ttt..rt.
4 t.....tt
5 ......tt
6 ......tt
7 ........

Turn = 24.
  01234567
0 ....t..t
1 ....tt..
2 .t......
3 ttt...t.
4 t.....tt
5 ......tt
6 ......tt
7 ........

Turn = 27.
  01234567
0 ....t..t
1 ....tt..
2 .t......
3 ttt...t.
4 t.....tt
5 ......tt
6 ......tt
7 ........

Turn = 30.
  01234567
0 ....t..t
1 ....tt..
2 .t......
3 ttt...t.
4 t.....tt
5 ......tt
6 ......tt
7 ........

Turn = 33.
  01234567
0 ....t..t
1 ....tt..
2 .t......
3 ttt...t.
4 t.....tt
5 ......tt
6 ......tt
7 ........

Turn = 36.
  01234567
0 ....t..t
1 ....tt..
2 .t......
3 ttt...t.
4 t.....tt
5 ......tt
6 ......tt
7 ........

Turn = 39.
  01234567
0 ....t..t
1 ....tt..
2 .t......
3 ttt...t.
4 t.....tt
5 ......tt
6 ......tt
7 ........

*** Darwin 8x9 ***
Turn = 0.
  012345678
0 ......h..
1 .........
2 trh......
3 h.......f
4 .....t...
5 f.f.h....
6 ..t......
7 .ttf.....

Turn = 2.
  012345678
0 .r..h....
1 .........
2 t...h....
3 t.......f
4 .....t...
5 f.t...h..
6 ..t......
7 .ttf.....

Turn = 4.
  012345678
0 ..rh.....
1 .........
2 t.....h..
3 t.......f
4 .....t...
5 f.t.....h
6 ..t......
7 .ttt.....

Turn = 6.
  012345678
0 ..r......
1 ...r.....
2 t.......h
3 t.......f
4 .....t...
5 f.t.....h
6 ..t......
7 .ttt.....

Turn = 8.
  012345678
0 .........
1 .........
2 t.r.....h
3 t..r....f
4 .....t...
5 f.t.....h
6 ..t......
7 .ttt.....

Turn = 10.
  012345678
0 .........
1 .........
2 t.......h
3 t.......f
4 ..r..t...
5 f.tr....h
6 ..t......
7 .ttt.....

Turn = 12.
  012345678
0 .........
1 .........
2 t.......h
3 t.......f
4 ..r..t...
5 f.r.....h
6 ..rr.....
7 .ttr.....

*** Darwin 9x8 ***
Turn = 0.
  01234567
0 .......h
1 ...t.t..
2 ..h.....
3 fh.f....
4 f.r.....
5 .f....h.
6 fthftf.f
7 ..t.....
8 .f......

Turn = 4.
  01234567
0 ..r....h
1 ...t.t..
2 .....t..
3 fh.f....
4 f.......
5 .t.t....
6 fttttt.f
7 ..t.....
8 .f......

*** Darwin 8x8 ***
Turn = 0.
  01234567
0 .hhh....
1 ..h.....
2 f.t...hf
3 ...h....
4 ........
5 ....rh..
6 ........
7 .r.f.rf.

Turn = 3.
  01234567
0 ....h...
1 ..tt....
2 f.t.rhhf
3 .h......
4 ........
5 ...r....
6 ...r....
7 ...r..rr

Turn = 6.
  01234567
0 ....rh.h
1 ..tt....
2 f.t...hf
3 ........
4 ......r.
5 .r......
6 .h...rr.
7 .....r..

Turn = 9.
  01234567
0 ..t..h.h
1 ..tt....
2 f.t...r.
3 ......rr
4 ......r.
5 ........
6 r...r...
7 .h.....r

*** Darwin 25x5 ***
Turn = 0.
  01234
0 .....
1 .....
2 .....
3 .....
4 h....
5 h....
6 .r...
7 ...t.
8 .....
9 h....
0 .h...
1 .....
2 ....r
3 .....
4 ...r.
5 .....
6 .....
7 .....
8 .....
9 .....
0 .....
1 ....t
2 .....
3 .....
4 .....

Turn = 2.
  01234
0 .....
1 .....
2 .....
3 .....
4 .....
5 h.h..
6 ...t.
7 h..t.
8 .....
9 .....
0 ...h.
1 .....
2 .....
3 ....r
4 .r...
5 .....
6 .....
7 .....
8 .....
9 .....
0 .....
1 ....t
2 .....
3 .....
4 .....

Turn = 4.
  01234
0 .....
1 .....
2 .....
3 .....
4 .....
5 ....h
6 h..t.
7 h..t.
8 .....
9 .....
0 ....h
1 .....
2 .....
3 .....
4 r....
5 ....r
6 .....
7 .....
8 .....
9 .....
0 .....
1 ....t
2 .....
3 .....
4 .....

Turn = 6.
  01234
0 .....
1 .....
2 .....
3 .....
4 .....
5 ....h
6 h..t.
7 h..t.
8 .....
9 .....
0 ....h
1 .....
2 .....
3 .....
4 .....
5 .....
6 r....
7 ....r
8 .....
9 .....
0 .....
1 ....t
2 .....
3 .....
4 .....

*** Darwin 10x12 ***
Turn = 0.
  012345678901
0 .........f..
1 ...t........
2 f...........
3 ............
4 ............
5 .....t..f...
6 ..........t.
7 ............
8 ............
9 ............

Turn = 3.
  012345678901
0 .........f..
1 ...t........
2 f...........
3 ............
4 ............
5 .....t..f...
6 ..........t.
7 ............
8 ............
9 ............

*** Darwin 35x30 ***
Turn = 0.
  012345678901234567890123456789
0 ..............................
1 ..............................
2 ..............................
3 .......f......................
4 ..............................
5 ..............................
6 ..........................r...
7 ..............................
8 ..............................
9 ..............................
0 ........r.....................
1 ...........................h..
2 ..............................
3 ..............................
4 ..............................
5 ..............................
6 ..............................
7 ..............................
8 ..............................
9 .........f.................r..
0 ..............................
1 .t..h.........................
2 ..............................
3 ..............................
4 ..............................
5 ..............................
6 ..............................
7 ...........................f..
8 ..............................
9 ..............................
0 ..............................
1 ..............................
2 ..............................
3 ..............................
4 ..............................

*** Darwin 37x38 ***
Turn = 0.
  01234567890123456789012345678901234567
0 ......r...............................
1 ......................................
2 ......................................
3 .............t........................
4 ......................................
5 ......................................
6 ....................................t.
7 ......................................
8 ......................................
9 ................r.....................
0 ......................................
1 ......................................
2 ........................h.............
3 ......................................
4 ......................................
5 ......................................
6 ......................................
7 ......................................
8 ......................................
9 ......................................
0 .................h....................
1 ......................................
2 ......................................
3 ....................f.................
4 ......................................
5 ................................h.....
6 t.....................................
7 ......................................
8 ......................................
9 ......................................
0 ......................................
1 ......................................
2 ......................................
3 ...f..................................
4 ......................................
5 ......................................
6 ......................................

Turn = 153.
  01234567890123456789012345678901234567
0 ......................................
1 ......................................
2 ......................................
3 .............t........................
4 ......................................
5 ......................................
6 ....................................t.
7 ......................................
8 ......................................
9 ......................................
0 ......................................
1 ......................................
2 ......................................
3 ......................................
4 ......................................
5 ......................................
6 ......................................
7 ......................................
8 ......................................
9 ......................................
0 ......................................
1 ......................................
2 ......................................
3 ....................f.................
4 ......................................
5 ......................................
6 .............r........................
7 ..........r...........................
8 ......................................
9 ......................................
0 ......................................
1 ......................................
2 ......................................
3 ...f..................................
4 ......................................
5 r.....................................
6 .................r.r.........r........

*** Darwin 16x1 ***
Turn = 0.
  0
0 .
1 .
2 .
3 h
4 .
5 .
6 f
7 h
8 .
9 .
0 .
1 .
2 .
3 .
4 t
5 .

*** Darwin 20x2 ***
Turn = 0.
  01
0 ..
1 ..
2 ..
3 ..
4 .f
5 .f
6 ..
7 ..
8 ..
9 ..
0 ..
1 ..
2 ..
3 ..
4 ..
5 .r
6 ..
7 ff
8 ..
9 r.

Turn = 4.
  01
0 ..
1 ..
2 ..
3 ..
4 .f
5 .f
6 ..
7 ..
8 ..
9 ..
0 ..
1 ..
2 ..
3 ..
4 ..
5 ..
6 ..
7 fr
8 .r
9 r.
